Manipuler ses données avec le tidyverse
…
# _tibble_, un autre data.frame

> _On garde le bon, on jette le mauvais_

+ Pas de changement du nom ou du type des variables

+ une méthode `print()` améliorée

```r
as_tibble(iris)
```

```
## # A tibble: 150 x 5
##    Sepal.Length Sepal.Width Petal.Length Petal.Width Species
##           <dbl>       <dbl>        <dbl>       <dbl> <fct>  
##  1          5.1         3.5          1.4         0.2 setosa 
##  2          4.9         3            1.4         0.2 setosa 
##  3          4.7         3.2          1.3         0.2 setosa 
##  4          4.6         3.1          1.5         0.2 setosa 
##  5          5           3.6          1.4         0.2 setosa 
##  6          5.4         3.9          1.7         0.4 setosa 
##  7          4.6         3.4          1.4         0.3 setosa 
##  8          5           3.4          1.5         0.2 setosa 
##  9          4.4         2.9          1.4         0.2 setosa 
## 10          4.9         3.1          1.5         0.1 setosa 
## # … with 140 more rows
```
…
+ `summarize()`

+ `group_by()`

---

# Jeu de données d'exemple : iris

```r
iris <- as_tibble(iris)
iris
```

```
## # A tibble: 150 x 5
##    Sepal.Length Sepal.Width Petal.Length Petal.Width Species
##           <dbl>       <dbl>        <dbl>       <dbl> <fct>  
##  1          5.1         3.5          1.4         0.2 setosa 
##  2          4.9         3            1.4         0.2 setosa 
##  3          4.7         3.2          1.3         0.2 setosa 
##  4          4.6         3.1          1.5         0.2 setosa 
##  5          5           3.6          1.4         0.2 setosa 
##  6          5.4         3.9          1.7         0.4 setosa 
##  7          4.6         3.4          1.4         0.3 setosa 
##  8          5           3.4          1.5         0.2 setosa 
##  9          4.4         2.9          1.4         0.2 setosa 
## 10          4.9         3.1          1.5         0.1 setosa 
## # … with 140 more rows
```

---

### `dplyr::select()`

<i class="fas fa-arrow-circle-right"></i> Sélectionner des variables

```r
select(iris, Sepal.Length, Species)
```

```
## # A tibble: 150 x 2
##    Sepal.Length Species
##           <dbl> <fct>  
##  1          5.1 setosa 
##  2          4.9 setosa 
##  3          4.7 setosa 
##  4          4.6 setosa 
##  5          5   setosa 
##  6          5.4 setosa 
##  7          4.6 setosa 
##  8          5   setosa 
##  9          4.4 setosa 
## 10          4.9 setosa 
## # … with 140 more rows
```
…
---

### `dplyr::rename()`

<i class="fas fa-arrow-circle-right"></i> Renommer des variables

```r
rename(iris, long_petal = Sepal.Length)
```

```
## # A tibble: 150 x 5
##    long_petal Sepal.Width Petal.Length Petal.Width Species
##         <dbl>       <dbl>        <dbl>       <dbl> <fct>  
##  1        5.1         3.5          1.4         0.2 setosa 
##  2        4.9         3            1.4         0.2 setosa 
##  3        4.7         3.2          1.3         0.2 setosa 
##  4        4.6         3.1          1.5         0.2 setosa 
##  5        5           3.6          1.4         0.2 setosa 
##  6        5.4         3.9          1.7         0.4 setosa 
##  7        4.6         3.4          1.4         0.3 setosa 
##  8        5           3.4          1.5         0.2 setosa 
##  9        4.4         2.9          1.4         0.2 setosa 
## 10        4.9         3.1          1.5         0.1 setosa 
## # … with 140 more rows
```
…
---

### `dplyr::mutate()`

<i class="fas fa-arrow-circle-right"></i> Ajouter des variables

```r
mutate(iris, taux_sepal = Sepal.Length/Sepal.Width)
```

```
## # A tibble: 150 x 6
##    Sepal.Length Sepal.Width Petal.Length Petal.Width Species taux_sepal
##           <dbl>       <dbl>        <dbl>       <dbl> <fct>        <dbl>
##  1          5.1         3.5          1.4         0.2 setosa        1.46
##  2          4.9         3            1.4         0.2 setosa        1.63
##  3          4.7         3.2          1.3         0.2 setosa        1.47
##  4          4.6         3.1          1.5         0.2 setosa        1.48
##  5          5           3.6          1.4         0.2 setosa        1.39
##  6          5.4         3.9          1.7         0.4 setosa        1.38
##  7          4.6         3.4          1.4         0.3 setosa        1.35
##  8          5           3.4          1.5         0.2 setosa        1.47
##  9          4.4         2.9          1.4         0.2 setosa        1.52
## 10          4.9         3.1          1.5         0.1 setosa        1.58
## # … with 140 more rows
```
…
---

### `dplyr::arrange()`

<i class="fas fa-arrow-circle-right"></i> Classer les observations selon des variables

```r
arrange(iris, desc(Species), Sepal.Length)
```

```
## # A tibble: 150 x 5
##    Sepal.Length Sepal.Width Petal.Length Petal.Width Species  
##           <dbl>       <dbl>        <dbl>       <dbl> <fct>    
##  1          4.9         2.5          4.5         1.7 virginica
##  2          5.6         2.8          4.9         2   virginica
##  3          5.7         2.5          5           2   virginica
##  4          5.8         2.7          5.1         1.9 virginica
##  5          5.8         2.8          5.1         2.4 virginica
##  6          5.8         2.7          5.1         1.9 virginica
##  7          5.9         3            5.1         1.8 virginica
##  8          6           2.2          5           1.5 virginica
##  9          6           3            4.8         1.8 virginica
## 10          6.1         3            4.9         1.8 virginica
## # … with 140 more rows
```
…
---

### `dplyr::group_by()` 

<i class="fas fa-arrow-circle-right"></i> Grouper en fonction de variables (`dplyr::ungroup()` pour dégrouper)

```r
group_by(iris, Species)
```

```
## # A tibble: 150 x 5
## # Groups:   Species [3]
##    Sepal.Length Sepal.Width Petal.Length Petal.Width Species
##           <dbl>       <dbl>        <dbl>       <dbl> <fct>  
##  1          5.1         3.5          1.4         0.2 setosa 
##  2          4.9         3            1.4         0.2 setosa 
##  3          4.7         3.2          1.3         0.2 setosa 
##  4          4.6         3.1          1.5         0.2 setosa 
##  5          5           3.6          1.4         0.2 setosa 
##  6          5.4         3.9          1.7         0.4 setosa 
##  7          4.6         3.4          1.4         0.3 setosa 
##  8          5           3.4          1.5         0.2 setosa 
##  9          4.4         2.9          1.4         0.2 setosa 
## 10          4.9         3.1          1.5         0.1 setosa 
## # … with 140 more rows
```
…
---

### `dplyr::group_by() + filter()`

<i class="fas fa-arrow-circle-right"></i> Grouper en fonction de variables

```r
group_by(iris, Species) %>% 
  filter_if(is.numeric, ~. > mean(.))
```

```
## # A tibble: 30 x 5
## # Groups:   Species [3]
##    Sepal.Length Sepal.Width Petal.Length Petal.Width Species   
##           <dbl>       <dbl>        <dbl>       <dbl> <fct>     
##  1          5.4         3.9          1.7         0.4 setosa    
##  2          5.7         4.4          1.5         0.4 setosa    
##  3          5.7         3.8          1.7         0.3 setosa    
##  4          5.1         3.8          1.5         0.3 setosa    
##  5          5.1         3.7          1.5         0.4 setosa    
##  6          5.1         3.8          1.9         0.4 setosa    
##  7          7           3.2          4.7         1.4 versicolor
##  8          6.4         3.2          4.5         1.5 versicolor
##  9          6.9         3.1          4.9         1.5 versicolor
## 10          6.5         2.8          4.6         1.5 versicolor
## # … with 20 more rows
```
…
---

### `dplyr::group_by() + mutate()`

<i class="fas fa-arrow-circle-right"></i> Grouper en fonction de variables

```r
group_by(iris, Species) %>% 
  mutate(moy_sepal_length = mean(Sepal.Length)) %>% 
  select(Species, moy_sepal_length)
```

```
## # A tibble: 150 x 2
## # Groups:   Species [3]
##    Species moy_sepal_length
##    <fct>              <dbl>
##  1 setosa              5.01
##  2 setosa              5.01
##  3 setosa              5.01
##  4 setosa              5.01
##  5 setosa              5.01
##  6 setosa              5.01
##  7 setosa              5.01
##  8 setosa              5.01
##  9 setosa              5.01
## 10 setosa              5.01
## # … with 140 more rows
```
…
```
## # A tibble: 76,046 x 7
##    country      year type  sex   age     cas total
##    <chr>       <int> <chr> <chr> <chr> <int> <int>
##  1 Afghanistan  1997 sp    m     0-14      0   128
##  2 Afghanistan  1997 sp    m     15-24    10   128
##  3 Afghanistan  1997 sp    m     25-34     6   128
##  4 Afghanistan  1997 sp    m     35-44     3   128
##  5 Afghanistan  1997 sp    m     45-54     5   128
##  6 Afghanistan  1997 sp    m     55-64     2   128
##  7 Afghanistan  1997 sp    m     65+       0   128
##  8 Afghanistan  1997 sp    f     0-14      5   128
##  9 Afghanistan  1997 sp    f     15-24    38   128
## 10 Afghanistan  1997 sp    f     25-34    36   128
## # … with 76,036 more rows
```
]
---

# Correction

```r
# 3. Année avec le plus de cas
tidywho %>% 
  group_by(year) %>% 
  summarise(total = sum(cas)) %>% 
  arrange(desc(total))
```

```
## # A tibble: 34 x 2
##     year   total
##    <int>   <int>
##  1  2010 3986811
##  2  2011 3977151
##  3  2012 3962589
##  4  2007 3836674
##  5  2009 3834194
##  6  2008 3535278
##  7  2013 3220572
##  8  2006 2996524
##  9  2005 2364023
## 10  2004 2184924
## # … with 24 more rows
```
…
